[
  {
    "description": "Internal maintenance: Update pipe release process.",
    "type": "patch"
  },
  {
    "description": "Internal maintenance: Add auto infrastructure for tests.",
    "type": "patch"
  }
]