{
  "changes": [
    {
      "description": "Internal maintenance: Bump release pipe version. Add multi-platform build: linux/arm64 and linux/amd64.",
      "type": "patch"
    }
  ],
  "created_at": "2024-08-08T17:15:44+00:00",
  "version": "2.1.1"
}